{
  "result":777099,
  "time":{
    "start":1599574045.103485,
    "finish":1599574046.397781,
    "duration":1.2942957878112793,
    "processing":1.2467498779296875,
    "date_start":"2020-09-08T17:07:25+03:00",
    "date_finish":"2020-09-08T17:07:26+03:00"
  }
}
