{
  "result":true,
  "time":{
    "start":1599576942.321104,
    "finish":1599576942.683069,
    "duration":0.3619649410247803,
    "processing":0.2813379764556885,
    "date_start":"2020-09-08T17:55:42+03:00",
    "date_finish":"2020-09-08T17:55:42+03:00"
  }
}
